{
  "project_info": {
    "project_number": "579659183410",
    "firebase_url": "https://petpediaaa-39022.firebaseio.com",
    "project_id": "petpediaaa-39022",
    "storage_bucket": "petpediaaa-39022.appspot.com"
  },
  "client": [
    {
      "client_info": {
        "mobilesdk_app_id": "1:579659183410:android:3ff5dae664f11b44",
        "android_client_info": {
          "package_name": "com.example.petpediaaaa"
        }
      },
      "oauth_client": [
        {
          "client_id": "579659183410-436aiunqdvuljbcr1kmb426pkobj1cqu.apps.googleusercontent.com",
          "client_type": 1,
          "android_info": {
            "package_name": "com.example.petpediaaaa",
            "certificate_hash": "2e52ebae8899af0057f88475651b6ca70c3d0320"
          }
        },
        {
          "client_id": "579659183410-vhurh1adka09prjjoreq0ae51qrev74k.apps.googleusercontent.com",
          "client_type": 3
        }
      ],
      "api_key": [
        {
          "current_key": "AIzaSyBA3N2L8WSsnmK54HWFUvSjD42bhRPMk_w"
        }
      ],
      "services": {
        "appinvite_service": {
          "other_platform_oauth_client": [
            {
              "client_id": "579659183410-vhurh1adka09prjjoreq0ae51qrev74k.apps.googleusercontent.com",
              "client_type": 3
            }
          ]
        }
      }
    }
  ],
  "configuration_version": "1"
}